{
    "KPlugin": {
        "Authors": [
            {
                "Email": "aleixpol@kde.org",
                "Name": "Aleix Pol i Gonzalez",
                "Name[ar]": "Aleix Pol i Gonzalez",
                "Name[az]": "Aleix Pol i Gonzalez",
                "Name[ca@valencia]": "Aleix Pol i Gonzalez",
                "Name[ca]": "Aleix Pol i Gonzalez",
                "Name[es]": "Aleix Pol i Gonzalez",
                "Name[fr]": "Aleix Pol i Gonzalez",
                "Name[it]": "Aleix Pol i Gonzalez",
                "Name[nl]": "Aleix Pol i Gonzalez",
                "Name[pl]": "Aleix Pol i Gonzalez",
                "Name[pt]": "Aleix Pol i Gonzalez",
                "Name[ro]": "Aleix Pol i Gonzalez",
                "Name[sl]": "Aleix Pol i Gonzalez",
                "Name[sv]": "Aleix Pol i Gonzalez",
                "Name[tr]": "Aleix Pol i Gonzalez",
                "Name[uk]": "Aleix Pol i Gonzalez",
                "Name[x-test]": "xxAleix Pol i Gonzalezxx"
            }
        ],
        "Description": "Use your devices as virtual monitors",
        "Description[ar]": "استخدم أجهزتك كشاشات افتراضية",
        "Description[az]": "Cihazlarınızı virtual monitorlar kimi istifadə edin",
        "Description[ca@valencia]": "Utiliseu els vostres dispositius com a monitors virtuals",
        "Description[ca]": "Useu els vostres dispositius com a monitors virtuals",
        "Description[es]": "Usar sus dispositivos como monitores virtuales",
        "Description[fr]": "Utilisez vos périphériques comme des écrans virtuels",
        "Description[it]": "Usa i tuoi dispositivi come schermi virtuali",
        "Description[nl]": "Uw apparaten als virtuele monitoren gebruiken",
        "Description[pl]": "Użyj swojego urządzenia jako wyświetlacza wirtualnego",
        "Description[pt]": "Usar os seus dispositivos como monitores virtuais",
        "Description[ro]": "Folosiți-vă dispozitivele ca monitoare virtuale",
        "Description[sl]": "Uporabi vaše naprave kot navidezne monitorje",
        "Description[sv]": "Använd apparater som virtuella bildskärmar",
        "Description[tr]": "Aygıtlarınızı sanal ekranlar olarak kullanın",
        "Description[uk]": "Використання ваших пристроїв як віртуальних моніторів",
        "Description[x-test]": "xxUse your devices as virtual monitorsxx",
        "EnabledByDefault": true,
        "Icon": "video-monitor",
        "Id": "kdeconnect_virtualmonitor",
        "License": "GPL",
        "Name": "Virtual Monitor",
        "Name[ar]": "شاشة افتراضية",
        "Name[az]": "Virtual monitor",
        "Name[ca@valencia]": "Monitor virtual",
        "Name[ca]": "Monitor virtual",
        "Name[es]": "Monitor virtual",
        "Name[fr]": "Écran virtuel",
        "Name[it]": "Schermo virtuale",
        "Name[nl]": "Virtuele monitor",
        "Name[pl]": "Wyświetlacz wirtualny",
        "Name[pt]": "Monitor Virtual",
        "Name[ro]": "Monitor virtual",
        "Name[sl]": "Navidezni monitor",
        "Name[sv]": "Virtuell bildskärm",
        "Name[tr]": "Sanal Ekran",
        "Name[uk]": "Віртуальний монітор",
        "Name[x-test]": "xxVirtual Monitorxx",
        "ServiceTypes": [
            "KdeConnect/Plugin"
        ],
        "Version": "0.1",
        "Website": "https://kde.org"
    },
    "X-KdeConnect-OutgoingPacketType": [
        "kdeconnect.virtualmonitor",
        "kdeconnect.virtualmonitor.request"
    ],
    "X-KdeConnect-SupportedPacketType": [
        "kdeconnect.virtualmonitor",
        "kdeconnect.virtualmonitor.request"
    ]
}
